<!-- Created with Inkscape (http://www.inkscape.org/) -->
<svg ViewBox="0 0 64 64">
 <g transform="translate(-0.12444493,-0.31360429)">
  <path d="m60,27.909c0,9.5897-12.088,17.364-27,17.364-4.4978,0-8.7387-0.70728-12.469-1.9583-1.807-0.607-14.586,11.568-16.124,10.725-1.5002-0.822,8.2325-14.657,7.0425-15.669-3.4205-2.91-5.449-6.534-5.449-10.462,0-9.59,12.088-17.364,27-17.364s27,7.774,27,17.364z" style="stroke-linejoin:round;stroke-linecap:round;stroke-miterlimit:4;stroke-width:4;fill:none;"/>
  <path id="path4428" d="m15.455,22.364,35.636,0" style="stroke-linejoin:miter;stroke-linecap:round;stroke-miterlimit:4;stroke-dasharray:none;stroke-width:2;fill:none;"/>
  <use id="use4463" xlink:href="#path4428" transform="translate(-4.5454547e-8,5.6363671)" height="64" width="64" y="0" x="0"/>
  <use xlink:href="#use4463" transform="translate(-4.5454547e-8,5.6363601)" height="64" width="64" y="0" x="0"/>
 </g>
</svg>
